{
    "process_name": "WEBCBO",
    "port": 7001,
    "app_name": "CBO (secondary)",
    "actions": {
        "stop": "cd /home/weblogic/config/web.clarify.tracfone; REMOTE_USER=weblogic; export REMOTE_USER; /bin/nohup ./wlassist stop >> nohup.out 2>&1 &",
        "start": "cd /home/weblogic/config/web.clarify.tracfone; REMOTE_USER=weblogic; export REMOTE_USER; /bin/nohup ./wlassist start >> nohup.out 2>&1 &",
        "status": "",
        "finally_kill": true
    },
    "servers": [
        {"{OPPOSITE_LOCATION}_WEBCBO": "/home/weblogic/scripts/lib/staticDefsProd.sh"}
    ]
}