{
    "process_name": "SpringAdmin",
    "port": 9301,
    "app_name": "PAY Spring Farm (secondary)",
    "actions": {
        "stop": "cd /home/weblogic/config/springfarm.tracfone.com; /bin/bash wlassist stop",
        "start": "cd /home/weblogic/config/springfarm.tracfone.com; REMOTE_USER=weblogic; export REMOTE_USER; /bin/nohup ./wlassist start >> nohup.out 2>&1 &",
        "status": "",
        "finally_kill": true
    },
    "servers": [
        {"{OPPOSITE_LOCATION}_SPRINGFARM_PAY": "/home/weblogic/scripts/lib/staticDefsProd.sh"}
    ]
}
